{
   "href":"https://api.spotify.com/v1/users/22zv3nwffzeo2wu5rgvbobclq/playlists?offset=0&limit=50",
   "items":[
      {
         "collaborative":false,
         "description":"",
         "external_urls":{
            "spotify":"https://open.spotify.com/playlist/1c6dDycZlmoRiedmDLejbH"
         },
         "href":"https://api.spotify.com/v1/playlists/1c6dDycZlmoRiedmDLejbH",
         "id":"1c6dDycZlmoRiedmDLejbH",
         "images":[
            {
               "height":640,
               "url":"https://mosaic.scdn.co/640/ab67616d0000b27306351bc1a8385545125ce138ab67616d0000b27350a0291371db2dd9b90ea072ab67616d0000b273960d002e4b6febd4723fca07ab67616d0000b273d58eef99bd0b10ba9e69192d",
               "width":640
            },
            {
               "height":300,
               "url":"https://mosaic.scdn.co/300/ab67616d0000b27306351bc1a8385545125ce138ab67616d0000b27350a0291371db2dd9b90ea072ab67616d0000b273960d002e4b6febd4723fca07ab67616d0000b273d58eef99bd0b10ba9e69192d",
               "width":300
            },
            {
               "height":60,
               "url":"https://mosaic.scdn.co/60/ab67616d0000b27306351bc1a8385545125ce138ab67616d0000b27350a0291371db2dd9b90ea072ab67616d0000b273960d002e4b6febd4723fca07ab67616d0000b273d58eef99bd0b10ba9e69192d",
               "width":60
            }
         ],
         "name":"TARAKO VOCALOID",
         "owner":{
            "display_name":"たらこちゃん",
            "external_urls":{
               "spotify":"https://open.spotify.com/user/22zv3nwffzeo2wu5rgvbobclq"
            },
            "href":"https://api.spotify.com/v1/users/22zv3nwffzeo2wu5rgvbobclq",
            "id":"22zv3nwffzeo2wu5rgvbobclq",
            "type":"user",
            "uri":"spotify:user:22zv3nwffzeo2wu5rgvbobclq"
         },
         "primary_color":"None",
         "public":true,
         "snapshot_id":"ODMsMjI5NmVjMWYzNjU2NDk3YjkxMjIwY2FkNmI1YzM5MGY0MGRmYjQzMQ==",
         "tracks":{
            "href":"https://api.spotify.com/v1/playlists/1c6dDycZlmoRiedmDLejbH/tracks",
            "total":81
         },
         "type":"playlist",
         "uri":"spotify:playlist:1c6dDycZlmoRiedmDLejbH"
      },
      {
         "collaborative":false,
         "description":"",
         "external_urls":{
            "spotify":"https://open.spotify.com/playlist/5Vb2I1I377fSttdTip5XX9"
         },
         "href":"https://api.spotify.com/v1/playlists/5Vb2I1I377fSttdTip5XX9",
         "id":"5Vb2I1I377fSttdTip5XX9",
         "images":[
            {
               "height":"None",
               "url":"https://i.scdn.co/image/ab67706c0000bebb76ef3346e7d890ec6282f206",
               "width":"None"
            }
         ],
         "name":"TARAKO PARTY MIX",
         "owner":{
            "display_name":"たらこちゃん",
            "external_urls":{
               "spotify":"https://open.spotify.com/user/22zv3nwffzeo2wu5rgvbobclq"
            },
            "href":"https://api.spotify.com/v1/users/22zv3nwffzeo2wu5rgvbobclq",
            "id":"22zv3nwffzeo2wu5rgvbobclq",
            "type":"user",
            "uri":"spotify:user:22zv3nwffzeo2wu5rgvbobclq"
         },
         "primary_color":"None",
         "public":true,
         "snapshot_id":"MTg5LGExOTYyYTIzN2U1M2Q0MTcxNzQ1ZWY5MjUyN2M2NGNlMDViODk2YWM=",
         "tracks":{
            "href":"https://api.spotify.com/v1/playlists/5Vb2I1I377fSttdTip5XX9/tracks",
            "total":126
         },
         "type":"playlist",
         "uri":"spotify:playlist:5Vb2I1I377fSttdTip5XX9"
      },
      {
         "collaborative":false,
         "description":"",
         "external_urls":{
            "spotify":"https://open.spotify.com/playlist/7EvSh5WzfVLT0eAjnA9x7h"
         },
         "href":"https://api.spotify.com/v1/playlists/7EvSh5WzfVLT0eAjnA9x7h",
         "id":"7EvSh5WzfVLT0eAjnA9x7h",
         "images":[
            {
               "height":640,
               "url":"https://mosaic.scdn.co/640/ab67616d0000b27391c1f72f6be65bf4cb27b4a4ab67616d0000b273b16a27e243a120fb6440d974ab67616d0000b273c32633331e11b4fe108237f8ab67616d0000b273e592b3987db846dbf98efd68",
               "width":640
            },
            {
               "height":300,
               "url":"https://mosaic.scdn.co/300/ab67616d0000b27391c1f72f6be65bf4cb27b4a4ab67616d0000b273b16a27e243a120fb6440d974ab67616d0000b273c32633331e11b4fe108237f8ab67616d0000b273e592b3987db846dbf98efd68",
               "width":300
            },
            {
               "height":60,
               "url":"https://mosaic.scdn.co/60/ab67616d0000b27391c1f72f6be65bf4cb27b4a4ab67616d0000b273b16a27e243a120fb6440d974ab67616d0000b273c32633331e11b4fe108237f8ab67616d0000b273e592b3987db846dbf98efd68",
               "width":60
            }
         ],
         "name":"TARAKO KPOP",
         "owner":{
            "display_name":"たらこちゃん",
            "external_urls":{
               "spotify":"https://open.spotify.com/user/22zv3nwffzeo2wu5rgvbobclq"
            },
            "href":"https://api.spotify.com/v1/users/22zv3nwffzeo2wu5rgvbobclq",
            "id":"22zv3nwffzeo2wu5rgvbobclq",
            "type":"user",
            "uri":"spotify:user:22zv3nwffzeo2wu5rgvbobclq"
         },
         "primary_color":"None",
         "public":true,
         "snapshot_id":"MTA0LGI5NmY0OWUwM2IwZmNhZGY2ZDVmODY4NjljOGQ0NTY3ZDJmMjNkZWU=",
         "tracks":{
            "href":"https://api.spotify.com/v1/playlists/7EvSh5WzfVLT0eAjnA9x7h/tracks",
            "total":103
         },
         "type":"playlist",
         "uri":"spotify:playlist:7EvSh5WzfVLT0eAjnA9x7h"
      },
      {
         "collaborative":false,
         "description":"",
         "external_urls":{
            "spotify":"https://open.spotify.com/playlist/1fQaBV5wgHLPDUAGoPk7OJ"
         },
         "href":"https://api.spotify.com/v1/playlists/1fQaBV5wgHLPDUAGoPk7OJ",
         "id":"1fQaBV5wgHLPDUAGoPk7OJ",
         "images":[
            {
               "height":640,
               "url":"https://mosaic.scdn.co/640/ab67616d0000b27313f982aa5c43146c3d2c1964ab67616d0000b27349024b592e878c18bdcae763ab67616d0000b2736dec7d4a0db25860029086beab67616d0000b2737b5246905b01860da76f2cb5",
               "width":640
            },
            {
               "height":300,
               "url":"https://mosaic.scdn.co/300/ab67616d0000b27313f982aa5c43146c3d2c1964ab67616d0000b27349024b592e878c18bdcae763ab67616d0000b2736dec7d4a0db25860029086beab67616d0000b2737b5246905b01860da76f2cb5",
               "width":300
            },
            {
               "height":60,
               "url":"https://mosaic.scdn.co/60/ab67616d0000b27313f982aa5c43146c3d2c1964ab67616d0000b27349024b592e878c18bdcae763ab67616d0000b2736dec7d4a0db25860029086beab67616d0000b2737b5246905b01860da76f2cb5",
               "width":60
            }
         ],
         "name":"Tarako Sound Track",
         "owner":{
            "display_name":"たらこちゃん",
            "external_urls":{
               "spotify":"https://open.spotify.com/user/22zv3nwffzeo2wu5rgvbobclq"
            },
            "href":"https://api.spotify.com/v1/users/22zv3nwffzeo2wu5rgvbobclq",
            "id":"22zv3nwffzeo2wu5rgvbobclq",
            "type":"user",
            "uri":"spotify:user:22zv3nwffzeo2wu5rgvbobclq"
         },
         "primary_color":"None",
         "public":true,
         "snapshot_id":"NzAsZjc3Y2M3YzI2ZTU4ZGY5Y2FmODk0NmVlYjY5YWUyYmQ3YmM0ZTMyNw==",
         "tracks":{
            "href":"https://api.spotify.com/v1/playlists/1fQaBV5wgHLPDUAGoPk7OJ/tracks",
            "total":65
         },
         "type":"playlist",
         "uri":"spotify:playlist:1fQaBV5wgHLPDUAGoPk7OJ"
      }
   ],
   "limit":50,
   "next":"None",
   "offset":0,
   "previous":"None",
   "total":4
}